Project1
…
## Warning in mean.default(Year): argument is not numeric or logical: returning NA

## # A tibble: 1 x 16
##    Year Schools Students  Exams Colleges `Total Enrollme… `Full-time`
##   <dbl>   <dbl>    <dbl>  <dbl>    <dbl>            <dbl>       <dbl>
## 1    NA   3623.   83402. 1.12e5    1396.         8645322.          NA
## # … with 9 more variables: `Part-time` <dbl>, `Percent Part-time` <dbl>,
## #   Male <dbl>, Female <dbl>, `Percent Female` <dbl>, `Total Public` <dbl>,
## #   `Total Private` <dbl>, `Private Nonprofit` <dbl>, `Private
## #   For-profit` <dbl>

fuldat %>% mutate('NonProfit/ForProfit Ratio'= `Private Nonprofit`/`Private For-profit`) %>% na.omit()

## # A tibble: 46 x 17
##    Year  Schools Students  Exams Colleges `Total Enrollme… `Full-time`
##    <chr>   <dbl>    <dbl>  <dbl>    <dbl>            <dbl>       <dbl>
##  1 1967     2863    46917  60674     1193          6911748     4793128
##  2 1968     3095    53363  69418     1288          7513091     5210155
##  3 1969     3186    55442  71495     1368          8004660     5498883
##  4 1970     3342    57850  74409     1382          8580887     5816290
##  5 1971     3397    58828  75199     1483          8948644     6077232
##  6 1972     3240    54778  70651     1437          9214860     6072389
##  7 1973     3357    60863  79036     1507          9602123     6189493
##  8 1974     3498    65635  85786     1517         10223729     6370273
##  9 1975     3937    75651  98898     1580         11184859     6841334
## 10 1976     4079    82728 108870     1672         11012137     6717058
## # … with 36 more rows, and 10 more variables: `Part-time` <dbl>, `Percent
## #   Part-time` <dbl>, Male <dbl>, Female <dbl>, `Percent Female` <dbl>, `Total
## #   Public` <dbl>, `Total Private` <dbl>, `Private Nonprofit` <dbl>, `Private
## #   For-profit` <dbl>, `NonProfit/ForProfit Ratio` <dbl>
…
fuldat2 <- fuldat %>% mutate(MF = case_when(`Percent Female` <=  50 ~ "LessFem",
'Percent Female' > 50  ~ "MoreFem"))

fuldat2 %>% group_by(Year, MF) %>% summarize(min(`Total Enrollment`)) %>% arrange(desc(Year))

## `summarise()` regrouping output by 'Year' (override with `.groups` argument)

## # A tibble: 58 x 3
## # Groups:   Year [58]
##    Year  MF      `min(\`Total Enrollment\`)`
##    <chr> <chr>                         <dbl>
##  1 2015  MoreFem                    21266000
##  2 2014  MoreFem                    21011000
##  3 2013  MoreFem                    20597000
##  4 2012  MoreFem                    20642819
##  5 2011  MoreFem                    20994113
##  6 2010  MoreFem                    21016126
##  7 2009  MoreFem                    20427711
##  8 2008  MoreFem                    19102814
##  9 2007  MoreFem                    18248128
## 10 2006  MoreFem                    17758870
## # … with 48 more rows

fuldat2 %>% group_by(Year, MF) %>% summarize(max(`Total Enrollment`))

## `summarise()` regrouping output by 'Year' (override with `.groups` argument)

## # A tibble: 58 x 3
## # Groups:   Year [58]
##    Year  MF      `max(\`Total Enrollment\`)`
##    <chr> <chr>                         <dbl>
##  1 1955  LessFem                     2653034
##  2 1956  LessFem                     2918212
##  3 1957  LessFem                     3323783
##  4 1959  LessFem                     3639847
##  5 1961  LessFem                     4145065
##  6 1963  LessFem                     4779609
##  7 1964  LessFem                     5280020
##  8 1965  LessFem                     5920864
##  9 1966  LessFem                     6389872
## 10 1967  LessFem                     6911748
## # … with 48 more rows
…
